(kicad_sch (version 20200714) (host eeschema "5.99.0-5c3fddffa6")

  (page 1 3)

  (paper "A4")

  (lib_symbols
  )


  (sheet (at 71.12 76.2) (size 53.34 29.21)
    (stroke (width 0.001) (type solid) (color 132 0 132 1))
    (fill (color 255 255 255 0.0000))
    (uuid 13d2e1fb-c660-4bac-9638-b76fa4b4bd99)
    (property "Sheet name" "left" (id 0) (at 71.12 75.5641 0)
      (effects (font (size 1.27 1.27)) (justify left bottom))
    )
    (property "Sheet file" "left.kicad_sch" (id 1) (at 71.12 105.9189 0)
      (effects (font (size 1.27 1.27)) (justify left top))
    )
  )

  (sheet (at 154.94 76.2) (size 53.34 29.21)
    (stroke (width 0.001) (type solid) (color 132 0 132 1))
    (fill (color 255 255 255 0.0000))
    (uuid 0e148cdb-0ec7-437a-a04e-f88303851351)
    (property "Sheet name" "right" (id 0) (at 154.94 75.5641 0)
      (effects (font (size 1.27 1.27)) (justify left bottom))
    )
    (property "Sheet file" "right.kicad_sch" (id 1) (at 154.94 105.9189 0)
      (effects (font (size 1.27 1.27)) (justify left top))
    )
  )

  (symbol_instances
    (path "/13d2e1fb-c660-4bac-9638-b76fa4b4bd99/5922b570-66ef-40e7-a146-09ef5d324bd3"
      (reference "#FLG0201") (unit 1)
    )
    (path "/13d2e1fb-c660-4bac-9638-b76fa4b4bd99/156fd624-f077-4061-9ce6-70a1ee441c50"
      (reference "#FLG0202") (unit 1)
    )
    (path "/13d2e1fb-c660-4bac-9638-b76fa4b4bd99/2f7cd969-b848-4451-83b4-550377cfdbf6"
      (reference "#FLG0203") (unit 1)
    )
    (path "/13d2e1fb-c660-4bac-9638-b76fa4b4bd99/d5d0f460-53c1-4e3d-80dc-e50f27f678a4"
      (reference "B201") (unit 1)
    )
    (path "/13d2e1fb-c660-4bac-9638-b76fa4b4bd99/6cb9641d-6913-4381-b2d9-031566bda688"
      (reference "C201") (unit 1)
    )
    (path "/13d2e1fb-c660-4bac-9638-b76fa4b4bd99/f33f5d7b-556f-4656-87b4-20fd60617d6e"
      (reference "C202") (unit 1)
    )
    (path "/13d2e1fb-c660-4bac-9638-b76fa4b4bd99/90f29558-f592-4949-85f8-6dea64ea6f85"
      (reference "C203") (unit 1)
    )
    (path "/13d2e1fb-c660-4bac-9638-b76fa4b4bd99/dac4dd92-5587-46f6-bb36-e305cd2da646"
      (reference "C204") (unit 1)
    )
    (path "/13d2e1fb-c660-4bac-9638-b76fa4b4bd99/d70debe8-90a8-470e-a7f5-9164be852bf6"
      (reference "C205") (unit 1)
    )
    (path "/13d2e1fb-c660-4bac-9638-b76fa4b4bd99/2edb3af8-55c8-4e3d-b040-53f77dcf28e4"
      (reference "C206") (unit 1)
    )
    (path "/13d2e1fb-c660-4bac-9638-b76fa4b4bd99/ff383506-5a33-44f8-8759-6c678053b564"
      (reference "C207") (unit 1)
    )
    (path "/13d2e1fb-c660-4bac-9638-b76fa4b4bd99/004bee55-863a-4874-b889-a8cc8f519826"
      (reference "C208") (unit 1)
    )
    (path "/13d2e1fb-c660-4bac-9638-b76fa4b4bd99/55ec4f12-eaa7-43ba-80eb-ee63f56f70e7"
      (reference "C209") (unit 1)
    )
    (path "/13d2e1fb-c660-4bac-9638-b76fa4b4bd99/4cb8376c-b062-4bee-aa31-ce13c3a49cd7"
      (reference "C210") (unit 1)
    )
    (path "/13d2e1fb-c660-4bac-9638-b76fa4b4bd99/06b5a97f-7959-4fa4-b614-4daad77d3bbb"
      (reference "C211") (unit 1)
    )
    (path "/13d2e1fb-c660-4bac-9638-b76fa4b4bd99/04b7dbde-a9cd-40b4-a2e7-f6f2f3aa431a"
      (reference "C212") (unit 1)
    )
    (path "/13d2e1fb-c660-4bac-9638-b76fa4b4bd99/3b5583a4-6914-455f-b758-fa7b9cf1aa6b"
      (reference "C213") (unit 1)
    )
    (path "/13d2e1fb-c660-4bac-9638-b76fa4b4bd99/738f8e4b-a014-4ed0-b720-7c5398ed91ce"
      (reference "C214") (unit 1)
    )
    (path "/13d2e1fb-c660-4bac-9638-b76fa4b4bd99/00000000-0000-0000-0000-00005f2cc458"
      (reference "C215") (unit 1)
    )
    (path "/13d2e1fb-c660-4bac-9638-b76fa4b4bd99/00000000-0000-0000-0000-00005f290270"
      (reference "C216") (unit 1)
    )
    (path "/13d2e1fb-c660-4bac-9638-b76fa4b4bd99/00000000-0000-0000-0000-00005f27dc1f"
      (reference "C217") (unit 1)
    )
    (path "/13d2e1fb-c660-4bac-9638-b76fa4b4bd99/00000000-0000-0000-0000-00005f2cc07c"
      (reference "C218") (unit 1)
    )
    (path "/13d2e1fb-c660-4bac-9638-b76fa4b4bd99/00000000-0000-0000-0000-00005f30702a"
      (reference "D201") (unit 1)
    )
    (path "/13d2e1fb-c660-4bac-9638-b76fa4b4bd99/06f83965-fa02-480d-9fe9-b1b9a3ae124a"
      (reference "G201") (unit 1)
    )
    (path "/13d2e1fb-c660-4bac-9638-b76fa4b4bd99/5e5cccad-59a8-4e7b-b203-fae62c8efad8"
      (reference "J201") (unit 1)
    )
    (path "/13d2e1fb-c660-4bac-9638-b76fa4b4bd99/f798d7e7-8de9-439c-959e-78ff4dee8810"
      (reference "J202") (unit 1)
    )
    (path "/13d2e1fb-c660-4bac-9638-b76fa4b4bd99/59257a38-28fc-40d6-8945-130d971afe2f"
      (reference "J203") (unit 1)
    )
    (path "/13d2e1fb-c660-4bac-9638-b76fa4b4bd99/e66d4370-d845-48a2-bcea-dfcf0d7d8f3e"
      (reference "J204") (unit 1)
    )
    (path "/13d2e1fb-c660-4bac-9638-b76fa4b4bd99/66520683-c0d0-45e0-a7f6-49d30c35a6c2"
      (reference "J205") (unit 1)
    )
    (path "/13d2e1fb-c660-4bac-9638-b76fa4b4bd99/4da9fdc1-e3ce-4a27-907c-5b7bce1443e2"
      (reference "J206") (unit 1)
    )
    (path "/13d2e1fb-c660-4bac-9638-b76fa4b4bd99/b3a3fc1c-47d3-4134-b1b8-57d199dd1577"
      (reference "J207") (unit 1)
    )
    (path "/13d2e1fb-c660-4bac-9638-b76fa4b4bd99/947f8338-bd07-44a7-b34f-a2fcfd8c3dbb"
      (reference "J208") (unit 1)
    )
    (path "/13d2e1fb-c660-4bac-9638-b76fa4b4bd99/f169eeaf-1a59-4f8c-aeaa-fe89d2dcad68"
      (reference "J209") (unit 1)
    )
    (path "/13d2e1fb-c660-4bac-9638-b76fa4b4bd99/1533767c-aa98-46f3-ab1a-069ff142dba4"
      (reference "J210") (unit 1)
    )
    (path "/13d2e1fb-c660-4bac-9638-b76fa4b4bd99/0842cc8d-31e6-43b1-b9a2-329b8f73ce38"
      (reference "J211") (unit 1)
    )
    (path "/13d2e1fb-c660-4bac-9638-b76fa4b4bd99/00000000-0000-0000-0000-00005f2b7c0d"
      (reference "J212") (unit 1)
    )
    (path "/13d2e1fb-c660-4bac-9638-b76fa4b4bd99/660c5daf-33ee-4de4-b1cd-fea104d7f49a"
      (reference "J213") (unit 1)
    )
    (path "/13d2e1fb-c660-4bac-9638-b76fa4b4bd99/413ddee7-65d9-4ed2-a82f-3db0af5abeb4"
      (reference "J214") (unit 1)
    )
    (path "/13d2e1fb-c660-4bac-9638-b76fa4b4bd99/00000000-0000-0000-0000-00005f160c1f"
      (reference "J215") (unit 1)
    )
    (path "/13d2e1fb-c660-4bac-9638-b76fa4b4bd99/3823dc13-bfab-45da-b35a-6d70dd1c4915"
      (reference "J216") (unit 1)
    )
    (path "/13d2e1fb-c660-4bac-9638-b76fa4b4bd99/98ab6204-3686-42ce-ad40-c7ba62fea9a8"
      (reference "R201") (unit 1)
    )
    (path "/13d2e1fb-c660-4bac-9638-b76fa4b4bd99/90cdfcdc-36e7-4e95-b28e-0a364f703ff2"
      (reference "R202") (unit 1)
    )
    (path "/13d2e1fb-c660-4bac-9638-b76fa4b4bd99/770c8c9b-d287-40b9-9312-39f6d4171d7c"
      (reference "R203") (unit 1)
    )
    (path "/13d2e1fb-c660-4bac-9638-b76fa4b4bd99/793adbcb-7e30-43bb-a1ba-79d30d34438f"
      (reference "R204") (unit 1)
    )
    (path "/13d2e1fb-c660-4bac-9638-b76fa4b4bd99/5c0ee09b-0c20-49d9-8abb-3b68b633da7c"
      (reference "SW201") (unit 1)
    )
    (path "/13d2e1fb-c660-4bac-9638-b76fa4b4bd99/00000000-0000-0000-0000-00005f29bc49"
      (reference "TH201") (unit 1)
    )
    (path "/13d2e1fb-c660-4bac-9638-b76fa4b4bd99/6d938922-5265-4490-bf1f-3569236f6a9a"
      (reference "U201") (unit 1)
    )
    (path "/13d2e1fb-c660-4bac-9638-b76fa4b4bd99/00000000-0000-0000-0000-00005f22cbe9"
      (reference "U202") (unit 1)
    )
    (path "/0e148cdb-0ec7-437a-a04e-f88303851351/cb317a3e-9d3b-44dd-8fe9-b012bb85c57c"
      (reference "#FLG0301") (unit 1)
    )
    (path "/0e148cdb-0ec7-437a-a04e-f88303851351/438cc247-3827-425b-8992-34a49cc1d3e2"
      (reference "#FLG0302") (unit 1)
    )
    (path "/0e148cdb-0ec7-437a-a04e-f88303851351/c04281dd-b622-4015-ba00-1780d62a1706"
      (reference "#FLG0303") (unit 1)
    )
    (path "/0e148cdb-0ec7-437a-a04e-f88303851351/484e5eee-6d57-46b5-bae5-88dd29f2604a"
      (reference "B301") (unit 1)
    )
    (path "/0e148cdb-0ec7-437a-a04e-f88303851351/c5981e45-14ee-4117-bfa9-5b13e2844ce7"
      (reference "C301") (unit 1)
    )
    (path "/0e148cdb-0ec7-437a-a04e-f88303851351/5788a57c-1909-4a19-b445-8ef7f875eec0"
      (reference "C302") (unit 1)
    )
    (path "/0e148cdb-0ec7-437a-a04e-f88303851351/0b8c74ed-e03b-424e-b83e-857fd78e4895"
      (reference "C303") (unit 1)
    )
    (path "/0e148cdb-0ec7-437a-a04e-f88303851351/6440a921-528f-41aa-ba0c-e08eaa406f3b"
      (reference "C304") (unit 1)
    )
    (path "/0e148cdb-0ec7-437a-a04e-f88303851351/991cf3ab-989f-45ac-bcd8-67028114268e"
      (reference "C305") (unit 1)
    )
    (path "/0e148cdb-0ec7-437a-a04e-f88303851351/58adb84c-cdfd-4fac-91f0-735d4a0f9191"
      (reference "C306") (unit 1)
    )
    (path "/0e148cdb-0ec7-437a-a04e-f88303851351/8ef42b79-c8e2-4088-ab80-ae99dd844cbe"
      (reference "C307") (unit 1)
    )
    (path "/0e148cdb-0ec7-437a-a04e-f88303851351/e87b9716-3d67-46c7-9b35-3b482e226e4a"
      (reference "C308") (unit 1)
    )
    (path "/0e148cdb-0ec7-437a-a04e-f88303851351/129267d9-0ed0-4c0f-9952-283e7d279359"
      (reference "C309") (unit 1)
    )
    (path "/0e148cdb-0ec7-437a-a04e-f88303851351/5a87a0a5-1c32-43a7-9157-ca411c17db4c"
      (reference "C310") (unit 1)
    )
    (path "/0e148cdb-0ec7-437a-a04e-f88303851351/8ffa9b2e-a355-4fd5-abb8-4b333df45c24"
      (reference "C311") (unit 1)
    )
    (path "/0e148cdb-0ec7-437a-a04e-f88303851351/42e0b2a9-21c7-44c3-97d2-6b7b2bdc8169"
      (reference "C312") (unit 1)
    )
    (path "/0e148cdb-0ec7-437a-a04e-f88303851351/2afa951c-77fc-47f8-a5b2-c0801c5b55a8"
      (reference "C313") (unit 1)
    )
    (path "/0e148cdb-0ec7-437a-a04e-f88303851351/0d3341ba-d773-4c95-9deb-63cc9dea4266"
      (reference "C314") (unit 1)
    )
    (path "/0e148cdb-0ec7-437a-a04e-f88303851351/c159890d-38c8-4860-a536-384f97155273"
      (reference "C315") (unit 1)
    )
    (path "/0e148cdb-0ec7-437a-a04e-f88303851351/80ca4c47-c5ea-4c80-8c24-b7cc2b1f9a40"
      (reference "C316") (unit 1)
    )
    (path "/0e148cdb-0ec7-437a-a04e-f88303851351/bd1bf232-6c0b-4553-84c1-dd9e1c349868"
      (reference "C317") (unit 1)
    )
    (path "/0e148cdb-0ec7-437a-a04e-f88303851351/071818bf-b04a-470a-8d35-26a4e2736f66"
      (reference "C318") (unit 1)
    )
    (path "/0e148cdb-0ec7-437a-a04e-f88303851351/3957a553-9321-42fc-a666-4c14733d166d"
      (reference "D301") (unit 1)
    )
    (path "/0e148cdb-0ec7-437a-a04e-f88303851351/85b473b3-718b-4bf3-98b3-a7e545c2fbd9"
      (reference "G301") (unit 1)
    )
    (path "/0e148cdb-0ec7-437a-a04e-f88303851351/237087ad-ef89-46d8-8530-31f17e0cebaa"
      (reference "G302") (unit 1)
    )
    (path "/0e148cdb-0ec7-437a-a04e-f88303851351/3ccc1570-bb21-44fa-b45c-73737bb6d47a"
      (reference "J301") (unit 1)
    )
    (path "/0e148cdb-0ec7-437a-a04e-f88303851351/3506558f-3909-44a7-9e1a-cb29a57c2451"
      (reference "J302") (unit 1)
    )
    (path "/0e148cdb-0ec7-437a-a04e-f88303851351/040561e2-e198-4043-aeb7-b6e9a9bbd123"
      (reference "J303") (unit 1)
    )
    (path "/0e148cdb-0ec7-437a-a04e-f88303851351/e0ede021-492e-4765-a8ec-9e59118ba489"
      (reference "J304") (unit 1)
    )
    (path "/0e148cdb-0ec7-437a-a04e-f88303851351/9b9f304a-00f7-4371-83c5-4486e00ca7bd"
      (reference "J305") (unit 1)
    )
    (path "/0e148cdb-0ec7-437a-a04e-f88303851351/dde9b190-5c0a-4bc9-a969-b1cf934fb9d7"
      (reference "J306") (unit 1)
    )
    (path "/0e148cdb-0ec7-437a-a04e-f88303851351/74ec7b12-59ff-4560-a3f3-8a4b87dd985c"
      (reference "J307") (unit 1)
    )
    (path "/0e148cdb-0ec7-437a-a04e-f88303851351/1960b0c3-03bf-4f69-8ef3-8b59250f4263"
      (reference "J308") (unit 1)
    )
    (path "/0e148cdb-0ec7-437a-a04e-f88303851351/aa466809-53f6-4fe5-9e15-f365e933ca99"
      (reference "J309") (unit 1)
    )
    (path "/0e148cdb-0ec7-437a-a04e-f88303851351/2d68eab5-8fd5-41da-b16a-8d076261dd3f"
      (reference "J310") (unit 1)
    )
    (path "/0e148cdb-0ec7-437a-a04e-f88303851351/0784436e-062a-449a-ae85-3d04f22cdb74"
      (reference "R301") (unit 1)
    )
    (path "/0e148cdb-0ec7-437a-a04e-f88303851351/66490cdb-2ced-4513-baf9-5078164ba4c5"
      (reference "R302") (unit 1)
    )
    (path "/0e148cdb-0ec7-437a-a04e-f88303851351/098a337e-dd76-4014-9e37-a9f65f780ec8"
      (reference "R303") (unit 1)
    )
    (path "/0e148cdb-0ec7-437a-a04e-f88303851351/6e8ae7ec-7e73-4c45-a88b-9b6c135591eb"
      (reference "R304") (unit 1)
    )
    (path "/0e148cdb-0ec7-437a-a04e-f88303851351/63b10e16-789f-41c8-a24d-25f586902b9e"
      (reference "R305") (unit 1)
    )
    (path "/0e148cdb-0ec7-437a-a04e-f88303851351/c943945e-a369-40dc-b5d2-5dd27f3c030a"
      (reference "SW301") (unit 1)
    )
    (path "/0e148cdb-0ec7-437a-a04e-f88303851351/bccb9b7a-5d89-4100-a324-b31792fd4b1f"
      (reference "TH301") (unit 1)
    )
    (path "/0e148cdb-0ec7-437a-a04e-f88303851351/891e3627-39c8-458a-a7e0-3a42d8625113"
      (reference "U301") (unit 1)
    )
    (path "/0e148cdb-0ec7-437a-a04e-f88303851351/60d76df3-3d78-42be-ab2d-7cd96cf3a0c9"
      (reference "U302") (unit 1)
    )
  )
)
