EESchema Schematic File Version 4
EELAYER 30 0
EELAYER END
$Descr A4 11693 8268
encoding utf-8
Sheet 1 1
Title ""
Date ""
Rev ""
Comp ""
Comment1 ""
Comment2 ""
Comment3 ""
Comment4 ""
$EndDescr
$Comp
L Connector:Conn_01x16_Male J1
U 1 1 5F11A6EC
P 4350 5200
F 0 "J1" V 4250 5050 50  0000 R CNN
F 1 "cap_pads" V 4150 5300 50  0000 R CNN
F 2 "waad:pads" H 4350 5200 50  0001 C CNN
F 3 "~" H 4350 5200 50  0001 C CNN
	1    4350 5200
	0    1    -1   0   
$EndComp
$Comp
L power:Earth #PWR01
U 1 1 5F139A0F
P 1600 3150
F 0 "#PWR01" H 1600 2900 50  0001 C CNN
F 1 "Earth" H 1600 3000 50  0001 C CNN
F 2 "" H 1600 3150 50  0001 C CNN
F 3 "~" H 1600 3150 50  0001 C CNN
	1    1600 3150
	1    0    0    -1  
$EndComp
Wire Wire Line
	1650 2800 1600 2800
Wire Wire Line
	1600 2800 1600 2900
Wire Wire Line
	1600 3000 1650 3000
Wire Wire Line
	1650 2900 1600 2900
Wire Wire Line
	1600 3100 1650 3100
Connection ~ 1600 2900
Wire Wire Line
	1600 2900 1600 3000
$Comp
L Connector:USB_C_Receptacle_USB2.0 J2
U 1 1 5F160C1F
P 9600 1100
F 0 "J2" V 9661 1830 50  0000 L CNN
F 1 "USB_C_Receptacle_USB2.0" V 9752 1830 50  0000 L CNN
F 2 "Connector_USB:USB_C_Receptacle_Palconn_UTC16-G" H 9750 1100 50  0001 C CNN
F 3 "https://www.usb.org/sites/default/files/documents/usb_type-c.zip" H 9750 1100 50  0001 C CNN
	1    9600 1100
	0    1    1    0   
$EndComp
Wire Wire Line
	1650 2700 1600 2700
Wire Wire Line
	1600 2700 1600 2800
Connection ~ 1600 2800
Wire Wire Line
	9500 1700 9500 1750
Wire Wire Line
	9500 1750 9450 1750
Wire Wire Line
	9400 1750 9400 1700
Wire Wire Line
	9600 1700 9600 1750
Wire Wire Line
	9600 1750 9650 1750
Wire Wire Line
	9700 1750 9700 1700
Text Label 9650 1800 3    50   ~ 0
D-
Text Label 9450 1800 3    50   ~ 0
D+
Wire Wire Line
	9450 1800 9450 1750
Connection ~ 9450 1750
Wire Wire Line
	9450 1750 9400 1750
Wire Wire Line
	9650 1750 9650 1800
Connection ~ 9650 1750
Wire Wire Line
	9650 1750 9700 1750
$Comp
L power:Earth #PWR06
U 1 1 5F18C1B3
P 8650 1150
F 0 "#PWR06" H 8650 900 50  0001 C CNN
F 1 "Earth" H 8650 1000 50  0001 C CNN
F 2 "" H 8650 1150 50  0001 C CNN
F 3 "~" H 8650 1150 50  0001 C CNN
	1    8650 1150
	1    0    0    -1  
$EndComp
Wire Wire Line
	8650 1150 8650 1100
Wire Wire Line
	8650 1100 8700 1100
Wire Wire Line
	8700 800  8650 800 
Wire Wire Line
	8650 800  8650 1100
Connection ~ 8650 1100
$Comp
L Device:C_Small C6
U 1 1 5F23768F
P 6550 3850
F 0 "C6" H 6642 3896 50  0000 L CNN
F 1 "C_Small" H 6642 3805 50  0000 L CNN
F 2 "Capacitor_SMD:C_0805_2012Metric" H 6550 3850 50  0001 C CNN
F 3 "~" H 6550 3850 50  0001 C CNN
	1    6550 3850
	1    0    0    -1  
$EndComp
Wire Wire Line
	6550 3700 6550 3750
Wire Wire Line
	5050 4900 5050 5000
Wire Wire Line
	4950 4850 4950 5000
Wire Wire Line
	4850 4800 4850 5000
$Comp
L Device:C_Small C5
U 1 1 5F23F05C
P 6450 3850
F 0 "C5" V 6450 3500 50  0000 L CNN
F 1 "C_Small" V 6450 3150 50  0000 L CNN
F 2 "Capacitor_SMD:C_0805_2012Metric" H 6450 3850 50  0001 C CNN
F 3 "~" H 6450 3850 50  0001 C CNN
	1    6450 3850
	1    0    0    -1  
$EndComp
Wire Wire Line
	6450 3700 6450 3750
Wire Wire Line
	6350 3700 6350 4750
Wire Wire Line
	6350 4750 4750 4750
Wire Wire Line
	4750 4750 4750 5000
Wire Wire Line
	6250 3700 6250 4700
Wire Wire Line
	4650 4700 4650 5000
Wire Wire Line
	6150 4650 4550 4650
Wire Wire Line
	4550 4650 4550 5000
Wire Wire Line
	6150 3700 6150 4650
Text Label 5750 3800 3    50   ~ 0
D-
Text Label 5650 3800 3    50   ~ 0
D+
Wire Wire Line
	5650 3700 5650 3800
Wire Wire Line
	5750 3700 5750 3800
Wire Wire Line
	4950 4500 4350 4500
Wire Wire Line
	4950 3700 4950 4500
$Comp
L Device:C_Small C4
U 1 1 5F265F48
P 4450 3850
F 0 "C4" H 4100 3900 50  0000 L CNN
F 1 "C_Small" H 4100 3750 50  0000 L CNN
F 2 "Capacitor_SMD:C_0805_2012Metric" H 4450 3850 50  0001 C CNN
F 3 "~" H 4450 3850 50  0001 C CNN
	1    4450 3850
	1    0    0    -1  
$EndComp
Wire Wire Line
	4450 3700 4450 3750
$Comp
L Device:C_Small C3
U 1 1 5F27068B
P 3750 3850
F 0 "C3" V 3750 3500 50  0000 L CNN
F 1 "C_Small" V 3750 3150 50  0000 L CNN
F 2 "Capacitor_SMD:C_0805_2012Metric" H 3750 3850 50  0001 C CNN
F 3 "~" H 3750 3850 50  0001 C CNN
	1    3750 3850
	1    0    0    -1  
$EndComp
Wire Wire Line
	3750 3700 3750 3750
Wire Wire Line
	2150 2050 2150 2100
Wire Wire Line
	2950 3700 2950 3750
$Comp
L Device:C_Small C2
U 1 1 5F25A528
P 2950 3850
F 0 "C2" V 2950 3500 50  0000 L CNN
F 1 "C_Small" V 2950 3150 50  0000 L CNN
F 2 "Capacitor_SMD:C_0805_2012Metric" H 2950 3850 50  0001 C CNN
F 3 "~" H 2950 3850 50  0001 C CNN
	1    2950 3850
	1    0    0    -1  
$EndComp
Wire Wire Line
	1950 2100 1950 2050
$Comp
L Device:C_Small C1
U 1 1 5F288AC5
P 1950 1950
F 0 "C1" V 1950 1600 50  0000 L CNN
F 1 "C_Small" V 1950 1250 50  0000 L CNN
F 2 "Capacitor_SMD:C_0805_2012Metric" H 1950 1950 50  0001 C CNN
F 3 "~" H 1950 1950 50  0001 C CNN
	1    1950 1950
	-1   0    0    1   
$EndComp
Text Notes 4600 2700 0    50   ~ 0
G7\n(avoided due to its position)
Wire Notes Line
	2300 2550 1900 2550
Text Notes 2000 2650 2    50   ~ 0
G8
Wire Notes Line
	1900 2550 1900 2350
Wire Notes Line
	2300 2550 2300 2350
Wire Notes Line
	3700 3450 3700 3250
Wire Notes Line
	3700 3250 4100 3250
Wire Notes Line
	4100 3250 4100 3450
Text Notes 3950 3250 2    50   ~ 0
G6
Wire Notes Line
	5000 2350 5000 2500
Wire Notes Line
	5000 2500 4600 2500
Wire Notes Line
	4600 2500 4600 2350
Wire Notes Line
	6500 3450 6500 3300
Wire Notes Line
	6900 3300 6900 3450
Text Notes 6500 3300 0    50   ~ 0
G1
Wire Notes Line
	6100 3300 6100 3450
Wire Notes Line
	6100 3300 6900 3300
Text Notes 6100 3300 0    50   ~ 0
G2
Wire Notes Line
	6000 3450 6000 3250
Wire Notes Line
	6000 3250 5600 3250
Wire Notes Line
	5600 3250 5600 3450
Text Notes 5600 3250 0    50   ~ 0
(avoided due to USB)\nG4
Wire Notes Line
	5200 3450 5200 3300
Wire Notes Line
	4900 3300 4900 3450
Wire Notes Line
	4700 3300 4700 3450
Wire Notes Line
	4700 3300 5200 3300
Wire Notes Line
	4600 3450 4600 3300
Wire Notes Line
	4600 3300 4400 3300
Wire Notes Line
	4400 3300 4400 3450
Wire Notes Line
	3000 3450 3000 3300
Wire Notes Line
	3000 3300 2900 3300
Wire Notes Line
	2900 3300 2900 3450
Wire Wire Line
	6250 4700 4650 4700
$Comp
L MCU_ST_STM32F0:STM32F072VBTx U1
U 1 1 5F20C96F
P 4450 2900
F 0 "U1" V 4400 2700 50  0000 R CNN
F 1 "STM32F072VBTx" V 4550 3200 50  0000 R CNN
F 2 "Package_QFP:LQFP-100_14x14mm_P0.5mm" H 3850 300 50  0001 R CNN
F 3 "http://www.st.com/st-web-ui/static/active/en/resource/technical/document/datasheet/DM00090510.pdf" H 4450 2900 50  0001 C CNN
	1    4450 2900
	0    1    1    0   
$EndComp
Text Notes 4900 3300 0    50   ~ 0
G3
Text Notes 2900 3300 0    50   ~ 0
G3
Text Notes 4700 3300 0    50   ~ 0
G5
Text Notes 4400 3300 0    50   ~ 0
G5
Wire Wire Line
	5050 4900 6750 4900
Wire Wire Line
	6650 4800 6650 3700
Wire Wire Line
	4850 4800 6650 4800
Wire Wire Line
	7150 2800 7250 2800
Wire Wire Line
	7250 2800 7250 2900
Wire Wire Line
	7250 3000 7150 3000
Wire Wire Line
	7150 2900 7250 2900
Connection ~ 7250 2900
Wire Wire Line
	7250 2900 7250 3000
Wire Wire Line
	7150 2700 7250 2700
Wire Wire Line
	7250 2700 7250 2800
Connection ~ 7250 2800
Wire Wire Line
	7150 3100 7250 3100
Wire Wire Line
	7250 3100 7250 3000
Connection ~ 7250 3000
Wire Wire Line
	1600 3100 1600 3000
Connection ~ 1600 3000
Wire Wire Line
	1600 3150 1600 3100
Connection ~ 1600 3100
Wire Wire Line
	7150 3200 7250 3200
Wire Wire Line
	7250 3200 7250 3100
Connection ~ 7250 3100
$Comp
L Regulator_Linear:TLV75533PDBV U2
U 1 1 5F22CBE9
P 8700 2400
F 0 "U2" H 8700 2742 50  0000 C CNN
F 1 "TLV75533PDBV" H 8700 2651 50  0000 C CNN
F 2 "Package_TO_SOT_SMD:SOT-23-5" H 8700 2725 50  0001 C CIN
F 3 "http://www.ti.com/lit/ds/symlink/tlv755p.pdf" H 8700 2450 50  0001 C CNN
	1    8700 2400
	-1   0    0    -1  
$EndComp
Wire Wire Line
	9000 2400 9050 2400
Wire Wire Line
	9050 2400 9050 2300
Wire Wire Line
	9050 2300 9000 2300
Wire Wire Line
	10200 2300 9050 2300
Connection ~ 9050 2300
Wire Wire Line
	8400 2300 8350 2300
Wire Wire Line
	7250 2300 7250 2700
Connection ~ 7250 2700
$Comp
L power:Earth #PWR07
U 1 1 5F23DB86
P 8700 2800
F 0 "#PWR07" H 8700 2550 50  0001 C CNN
F 1 "Earth" H 8700 2650 50  0001 C CNN
F 2 "" H 8700 2800 50  0001 C CNN
F 3 "~" H 8700 2800 50  0001 C CNN
	1    8700 2800
	1    0    0    -1  
$EndComp
Wire Wire Line
	8700 2800 8700 2750
Wire Wire Line
	6550 3950 6550 4000
Wire Wire Line
	6550 4000 6500 4000
Wire Wire Line
	6450 4000 6450 3950
$Comp
L power:Earth #PWR03
U 1 1 5F24B50F
P 2950 4000
F 0 "#PWR03" H 2950 3750 50  0001 C CNN
F 1 "Earth" H 2950 3850 50  0001 C CNN
F 2 "" H 2950 4000 50  0001 C CNN
F 3 "~" H 2950 4000 50  0001 C CNN
	1    2950 4000
	1    0    0    -1  
$EndComp
Wire Wire Line
	2950 4000 2950 3950
$Comp
L power:Earth #PWR04
U 1 1 5F252662
P 3750 4000
F 0 "#PWR04" H 3750 3750 50  0001 C CNN
F 1 "Earth" H 3750 3850 50  0001 C CNN
F 2 "" H 3750 4000 50  0001 C CNN
F 3 "~" H 3750 4000 50  0001 C CNN
	1    3750 4000
	1    0    0    -1  
$EndComp
Wire Wire Line
	3750 4000 3750 3950
$Comp
L power:Earth #PWR05
U 1 1 5F25687A
P 4450 4000
F 0 "#PWR05" H 4450 3750 50  0001 C CNN
F 1 "Earth" H 4450 3850 50  0001 C CNN
F 2 "" H 4450 4000 50  0001 C CNN
F 3 "~" H 4450 4000 50  0001 C CNN
	1    4450 4000
	1    0    0    -1  
$EndComp
Wire Wire Line
	4450 4000 4450 3950
$Comp
L power:Earth #PWR02
U 1 1 5F25D5F5
P 1750 1850
F 0 "#PWR02" H 1750 1600 50  0001 C CNN
F 1 "Earth" H 1750 1700 50  0001 C CNN
F 2 "" H 1750 1850 50  0001 C CNN
F 3 "~" H 1750 1850 50  0001 C CNN
	1    1750 1850
	1    0    0    -1  
$EndComp
Wire Wire Line
	1750 1850 1750 1800
Wire Wire Line
	1750 1800 1950 1800
Wire Wire Line
	1950 1800 1950 1850
$Comp
L power:Earth #PWR0101
U 1 1 5F26836D
P 6500 4050
F 0 "#PWR0101" H 6500 3800 50  0001 C CNN
F 1 "Earth" H 6500 3900 50  0001 C CNN
F 2 "" H 6500 4050 50  0001 C CNN
F 3 "~" H 6500 4050 50  0001 C CNN
	1    6500 4050
	1    0    0    -1  
$EndComp
Wire Wire Line
	6500 4050 6500 4000
Connection ~ 6500 4000
Wire Wire Line
	6500 4000 6450 4000
$Comp
L Device:C_Small C8
U 1 1 5F27DC1F
P 9050 2550
F 0 "C8" H 8900 2300 50  0000 L CNN
F 1 "C_Small" H 8900 2200 50  0000 L CNN
F 2 "Capacitor_SMD:C_0805_2012Metric" H 9050 2550 50  0001 C CNN
F 3 "~" H 9050 2550 50  0001 C CNN
	1    9050 2550
	1    0    0    -1  
$EndComp
Wire Wire Line
	9050 2650 9050 2750
Wire Wire Line
	9050 2750 8700 2750
Connection ~ 8700 2750
Wire Wire Line
	8700 2750 8700 2700
Wire Wire Line
	9050 2450 9050 2400
Connection ~ 9050 2400
$Comp
L Device:C_Small C7
U 1 1 5F290270
P 8350 2550
F 0 "C7" H 8400 2300 50  0000 L CNN
F 1 "C_Small" H 8200 2200 50  0000 L CNN
F 2 "Capacitor_SMD:C_0805_2012Metric" H 8350 2550 50  0001 C CNN
F 3 "~" H 8350 2550 50  0001 C CNN
	1    8350 2550
	-1   0    0    -1  
$EndComp
Wire Wire Line
	8350 2450 8350 2300
Connection ~ 8350 2300
Wire Wire Line
	8350 2300 8150 2300
Wire Wire Line
	8350 2650 8350 2750
Wire Wire Line
	8350 2750 8700 2750
$Comp
L Device:Thermistor_PTC TH1
U 1 1 5F29BC49
P 10200 2100
F 0 "TH1" H 10047 2054 50  0000 R CNN
F 1 "Thermistor_PTC" H 10047 2145 50  0000 R CNN
F 2 "Fuse:Fuse_0805_2012Metric_Castellated" H 10250 1900 50  0001 L CNN
F 3 "~" H 10200 2100 50  0001 C CNN
	1    10200 2100
	-1   0    0    1   
$EndComp
Wire Wire Line
	10200 1950 10200 1850
Wire Wire Line
	10200 2250 10200 2300
$Comp
L power:Earth #PWR08
U 1 1 5F2B694A
P 10750 1850
F 0 "#PWR08" H 10750 1600 50  0001 C CNN
F 1 "Earth" H 10750 1700 50  0001 C CNN
F 2 "" H 10750 1850 50  0001 C CNN
F 3 "~" H 10750 1850 50  0001 C CNN
	1    10750 1850
	1    0    0    -1  
$EndComp
$Comp
L Connector:Conn_01x02_Male J3
U 1 1 5F2B7C0D
P 10550 1600
F 0 "J3" V 10612 1644 50  0000 L CNN
F 1 "Conn_01x02_Male" V 10703 1644 50  0000 L CNN
F 2 "Connector_PinHeader_2.54mm:PinHeader_1x02_P2.54mm_Vertical" H 10550 1600 50  0001 C CNN
F 3 "~" H 10550 1600 50  0001 C CNN
	1    10550 1600
	0    1    1    0   
$EndComp
Wire Wire Line
	10750 1850 10550 1850
Wire Wire Line
	10550 1850 10550 1800
Wire Wire Line
	10450 1800 10450 1850
Wire Wire Line
	10450 1850 10200 1850
Connection ~ 10200 1850
Wire Wire Line
	10200 1850 10200 1700
$Comp
L Device:C_Small C10
U 1 1 5F2CC07C
P 9250 2550
F 0 "C10" H 9350 2650 50  0000 L CNN
F 1 "C_Small" H 9300 2750 50  0000 L CNN
F 2 "Capacitor_SMD:C_0805_2012Metric" H 9250 2550 50  0001 C CNN
F 3 "~" H 9250 2550 50  0001 C CNN
	1    9250 2550
	1    0    0    -1  
$EndComp
$Comp
L Device:C_Small C9
U 1 1 5F2CC458
P 8150 2550
F 0 "C9" H 8400 2650 50  0000 L CNN
F 1 "C_Small" H 8200 2450 50  0000 L CNN
F 2 "Capacitor_SMD:C_0805_2012Metric" H 8150 2550 50  0001 C CNN
F 3 "~" H 8150 2550 50  0001 C CNN
	1    8150 2550
	-1   0    0    -1  
$EndComp
Wire Wire Line
	9250 2450 9250 2400
Wire Wire Line
	9250 2400 9050 2400
Wire Wire Line
	9250 2650 9250 2750
Wire Wire Line
	9250 2750 9050 2750
Connection ~ 9050 2750
Wire Wire Line
	8350 2750 8150 2750
Wire Wire Line
	8150 2750 8150 2650
Connection ~ 8350 2750
Wire Wire Line
	8150 2450 8150 2300
Connection ~ 8150 2300
Wire Wire Line
	8150 2300 7250 2300
$Comp
L Device:C_Small C11
U 1 1 5F2E970C
P 7250 3350
F 0 "C11" H 7350 3450 50  0000 L CNN
F 1 "C_Small" H 7350 3250 50  0000 L CNN
F 2 "Capacitor_SMD:C_0805_2012Metric" H 7250 3350 50  0001 C CNN
F 3 "~" H 7250 3350 50  0001 C CNN
	1    7250 3350
	1    0    0    -1  
$EndComp
$Comp
L power:Earth #PWR09
U 1 1 5F2E9EDF
P 7250 3500
F 0 "#PWR09" H 7250 3250 50  0001 C CNN
F 1 "Earth" H 7250 3350 50  0001 C CNN
F 2 "" H 7250 3500 50  0001 C CNN
F 3 "~" H 7250 3500 50  0001 C CNN
	1    7250 3500
	1    0    0    -1  
$EndComp
Wire Wire Line
	7250 3500 7250 3450
Wire Wire Line
	7250 3250 7250 3200
Connection ~ 7250 3200
$Comp
L LED:APA102 D1
U 1 1 5F30702A
P 10200 2700
F 0 "D1" H 10500 2500 50  0000 C CNN
F 1 "APA102" H 10600 2350 50  0000 C CNN
F 2 "LED_SMD:LED_RGB_5050-6" H 10250 2400 50  0001 L TNN
F 3 "http://www.led-color.com/upload/201506/APA102%20LED.pdf" H 10300 2325 50  0001 L TNN
	1    10200 2700
	1    0    0    -1  
$EndComp
Wire Wire Line
	10200 2400 10200 2300
Connection ~ 10200 2300
$Comp
L power:Earth #PWR0102
U 1 1 5F351D5B
P 10200 3050
F 0 "#PWR0102" H 10200 2800 50  0001 C CNN
F 1 "Earth" H 10200 2900 50  0001 C CNN
F 2 "" H 10200 3050 50  0001 C CNN
F 3 "~" H 10200 3050 50  0001 C CNN
	1    10200 3050
	1    0    0    -1  
$EndComp
Wire Wire Line
	10200 3050 10200 3000
Text Label 9850 2600 2    50   ~ 0
APA_DI
Text Label 9850 2700 2    50   ~ 0
APA_CI
Wire Wire Line
	9850 2600 9900 2600
Wire Wire Line
	9850 2700 9900 2700
Text Label 5350 3800 3    50   ~ 0
APA_DI
Text Label 5450 3800 3    50   ~ 0
APA_CI
Wire Wire Line
	3850 4300 3850 3700
Wire Wire Line
	3950 3700 3950 4250
Wire Wire Line
	3850 4450 3850 5000
Wire Wire Line
	3750 4400 3750 5000
Wire Wire Line
	4550 3700 4550 4350
Wire Wire Line
	4550 4350 3550 4350
Wire Wire Line
	3550 4350 3550 5000
Wire Wire Line
	4850 4400 4850 3700
Wire Wire Line
	3750 4400 4850 4400
Wire Wire Line
	4750 3700 4750 4450
Wire Wire Line
	4750 4450 3850 4450
Wire Wire Line
	6850 4850 6850 3700
Wire Wire Line
	4950 4850 6850 4850
Wire Wire Line
	6750 3700 6750 4900
Wire Wire Line
	5150 3700 5150 4600
Wire Wire Line
	5150 4600 3650 4600
Wire Wire Line
	3650 4600 3650 5000
Wire Wire Line
	4450 5000 4450 4550
Wire Wire Line
	4450 4550 5050 4550
Wire Wire Line
	5050 4550 5050 3700
Wire Wire Line
	4350 4500 4350 5000
Wire Wire Line
	4050 4200 4250 4200
Wire Wire Line
	4250 4200 4250 5000
Wire Wire Line
	4050 3700 4050 4200
Wire Wire Line
	3950 4250 4050 4250
Text Label 2150 2050 1    50   ~ 0
extra
Text Label 3950 4950 1    50   ~ 0
extra
Wire Wire Line
	3950 4950 3950 5000
Wire Wire Line
	4150 4300 4150 5000
Wire Wire Line
	3850 4300 4150 4300
Wire Wire Line
	4050 5000 4050 4250
$EndSCHEMATC
